[
  { "level": 1,
    "difficulty": "tutorial",
    "points": 0,
    "field": [
      ["player", "obstacle_asteroid"],
      ["", "worm_hole"]
    ],
    "hint": "Ikonky z instrukční sady na vrchu tohoto panelu můžeš přetáhnout do zásobníků volání (hlavní program). \nŠipka značí směr pohybu lodi v mřížce. \nInstrukce můžeš ze zásobníků odstranit přetažením do volného prostoru.",
    "safetyChecks": {
      "minMoves": 2
    }
  },
  { "level": 2,
    "difficulty": "tutorial",
    "points": 0,
    "field": [
      ["", "", ""],
      ["player", "obstacle_asteroid", "worm_hole"],
      ["", "", ""]
    ],
    "hint": "Pokud potřebuješ více času, aktualizuj stránku (klávesa F5). \nPokud odejdeš a časový limit vyprší, tvůj postup bude uložen, ale nebudeš moci pokračovat. Budeš ale moci začit znovu",
    "safetyChecks": {
      "minMoves": 4
    }
  },
  { "level": 3,
    "difficulty": "tutorial",
    "points": 0,
    "field": [
      ["obstacle_asteroid", "worm_hole", ""],
      ["player", "obstacle_asteroid", ""],
      ["", "", ""]
    ],
    "safetyChecks": {
      "minMoves": 6
    }
  },
  { "level": 4,
    "difficulty": "tutorial",
    "points": 1,
    "field": [
      ["", "", "obstacle_asteroid", "worm_hole"],
      ["", "obstacle_asteroid", "", ""],
      ["obstacle_asteroid", "", "", "obstacle_asteroid"],
      ["player", "", "obstacle_asteroid", ""]
    ],
    "procedures": 1,
    "hint": "Pomocí procedur můžeš použít sekvenci instrukcí víckrát a usnadnit si tak práci s programováním. \nKdyž vytvoříš nekonečnou smyčku, program může selhat. \nProceduru zavoláš instrukcí P s číslem (např. p0 = Procedure 0). ",
    "safetyChecks": {
      "minMoves": 6
    }
  },
  { "level": 5,
    "difficulty": "easy",
    "points": 1,
    "field": [
      ["player", "", "obstacle_asteroid"],
      ["", "", ""],
      ["obstacle_asteroid", "", "worm_hole"]
    ],
    "procedures": 1,
    "safetyChecks": {
      "minMoves": 4
    }
  },
  { "level": 6,
    "difficulty": "easy",
    "points": 1,
    "field": [
      ["player", "obstacle_asteroid", "obstacle_asteroid", "worm_hole"],
      ["", "obstacle_asteroid", "obstacle_asteroid", ""],
      ["", "obstacle_asteroid", "obstacle_asteroid", ""],
      ["", "", "", ""]
    ],
    "hint": "Někdy může nastat nedostatek paměti a počet instrukcí v programu je omezen. Teď se hodí použít procedury.",
    "procedures": 2,
    "progLimit": 5,
    "safetyChecks": {
      "minMoves": 6
    }
  },
  { "level": 7,
    "difficulty": "normal",
    "points": 3,
    "field": [
      ["player", "", "", "obstacle_asteroid", ""],
      ["", "obstacle_asteroid", "obstacle_asteroid", "worm_hole", ""],
      ["", "", "", "obstacle_asteroid", ""],
      ["obstacle_asteroid", "", "", "", ""],
      ["", "", "obstacle_asteroid", "", ""]
    ],
    "procedures": 2,
    "progLimit": 4,
    "safetyChecks": {
      "minMoves": 6
    }
  },
  { "level": 8,
    "difficulty": "normal",
    "points": 3,
    "field": [
      ["player", "obstacle_asteroid", "", "portal_0", "obstacle_asteroid"],
      ["", "", "obstacle_asteroid", "", "worm_hole"],
      ["obstacle_asteroid", "", "", "obstacle_asteroid", ""],
      ["", "obstacle_asteroid", "", "", "obstacle_asteroid"],
      ["", "", "obstacle_asteroid", "", "portal_0"]
    ],
    "hint": "Menší portály mohou loď teleportovat na krátkou vzdálenost.\nPortály se stejnou barvou jsou mezi sebou propojeny.",
    "procedures": 1,
    "progLimit": 5,
    "safetyChecks": {
      "minMoves": 6
    }
  },
  { "level": 9,
    "difficulty": "normal",
    "points": 3,
    "field": [
      ["portal_0", "", "obstacle_asteroid", "obstacle_asteroid", "obstacle_asteroid"],
      ["obstacle_asteroid", "portal_1", "obstacle_asteroid", "obstacle_asteroid", "obstacle_asteroid"],
      ["obstacle_asteroid", "obstacle_asteroid", "portal_1", "", "portal_2"],
      ["obstacle_asteroid", "obstacle_asteroid", "obstacle_asteroid", "portal_2", ""],
      ["player", "", "portal_0", "obstacle_asteroid", "worm_hole"]
    ],
    "procedures": 2,
    "progLimit": 4,
    "safetyChecks": {
      "minMoves": 6
    }
  },
  { "level": 10,
    "difficulty": "normal",
    "points": 3,
    "field": [
      ["", "obstacle_asteroid", "portal_3", "", "portal_2", ""],
      ["portal_3", "worm_hole", "obstacle_asteroid", "", "obstacle_asteroid", ""],
      ["obstacle_asteroid", "obstacle_asteroid", "portal_2", "", "portal_1", ""],
      ["portal_0", "", "obstacle_asteroid", "portal_1", "", "obstacle_asteroid"],
      ["obstacle_asteroid", "", "obstacle_asteroid", "obstacle_asteroid", "", "obstacle_asteroid"],
      ["player", "", "obstacle_asteroid", "portal_0", "", ""]
    ],
    "procedures": 1,
    "progLimit": 5,
    "safetyChecks": {
      "minMoves": 6
    }
  },
  { "level": 11,
    "difficulty": "hard",
    "points": 4,
    "field": [
      ["", "portal_2", "", "portal_1", "obstacle_asteroid", "player"],
      ["portal_3", "", "portal_2", "", "portal_1", ""],
      ["", "portal_5", "", "portal_4", "", "portal_3"],
      ["portal_6", "", "portal_5", "", "portal_4", ""],
      ["", "portal_8", "", "portal_7", "", "portal_6"],
      ["worm_hole", "", "portal_8", "", "portal_7", ""]
    ],
    "procedures": 2,
    "progLimit": 5,
    "safetyChecks": {
      "minMoves": 6
    }
  },
  { "level": "woah",
    "difficulty": "hard",
    "points": 5,
    "field": [
      ["", "", "", "obstacle_asteroid", "", "", "", "", "player"],
      ["", "", "", "", "", "obstacle_asteroid", "obstacle_asteroid", "obstacle_asteroid", "obstacle_asteroid"],
      ["", "obstacle_asteroid", "obstacle_asteroid", "obstacle_asteroid", "obstacle_asteroid", "obstacle_asteroid", "", "", ""],
      ["", "", "", "", "", "", "", "", ""],
      ["obstacle_asteroid", "obstacle_asteroid", "obstacle_asteroid", "obstacle_asteroid", "obstacle_asteroid", "obstacle_asteroid", "obstacle_asteroid", "obstacle_asteroid", ""],
      ["", "", "", "obstacle_asteroid", "", "", "", "", ""],
      ["", "", "", "", "", "obstacle_asteroid", "", "", ""],
      ["", "obstacle_asteroid", "obstacle_asteroid", "obstacle_asteroid", "obstacle_asteroid", "obstacle_asteroid", "obstacle_asteroid", "obstacle_asteroid", "obstacle_asteroid"],
      ["", "", "", "", "", "", "", "", "worm_hole"]
    ],
    "hint": "Algoritmizace",
    "procedures": 3,
    "progLimit": 5,
    "safetyChecks": {
      "minMoves": 40
    }
  }
]
